You’re going to Brazil или Считаем размер выборки для A/B-теста в бразильском маркетплейсе
…
P-значение хи-квадрата: 0.39542036385128

P-значение z-теста пропорций: 0.39542036385128

Хорошо видно, что хи-квадрат и z-тест выдали идеально идентичные результаты. P-значение t-теста немного отличается, но различия начинаются с 4 знака после запятой – для наших целей это более чем достаточное приближение.

Для удобства дальше мы будем использовать как раз t-тест – не нужно будет мучиться с созданием таблиц сопряжённости. Но всё ещё нужно разобраться с другой проблемой: наши данные могут содержать не только 0-1, но ещё и другие значения.

set.seed(2112)

sim_buyer_data(size = 1000, type = "boot", 
               mean_prob = 0.5, template = prob_table) %>% 
  filter(orders > 1)

# A tibble: 27 × 3
   orders successes ratio
    <int>     <int> <dbl>
 1      2         1 0.5  
 2      2         2 1    
 3      2         2 1    
 4     17         2 0.118
 5      2         1 0.5  
 6      2         1 0.5  
 7      2         0 0    
 8      2         1 0.5  
 9      2         0 0    
10      3         2 0.667
# ℹ 17 more rows
…
